<?xml version="1.0" encoding="utf-8"?>
<!-- Generator: Adobe Illustrator 16.0.0, SVG Export Plug-In . SVG Version: 6.00 Build 0)  -->
<!DOCTYPE svg PUBLIC "-//W3C//DTD SVG 1.1//EN" "http://www.w3.org/Graphics/SVG/1.1/DTD/svg11.dtd">
<svg version="1.1" id="Layer_2" xmlns="http://www.w3.org/2000/svg" xmlns:xlink="http://www.w3.org/1999/xlink" x="0px" y="0px"
     width="100px" height="100px" viewBox="0 0 100 100" enable-background="new 0 0 100 100" xml:space="preserve">
<path fill="#525252" d="M81.518,36.534L46.194,71.855c-2.616,2.612-6.859,2.612-9.477,0L18.483,53.619
	c-2.617-2.616-2.617-6.859,0-9.476c2.617-2.617,6.86-2.617,9.476-0.001l13.498,13.499L72.04,27.057c2.617-2.617,6.86-2.615,9.476,0
	C84.133,29.674,84.133,33.916,81.518,36.534z"/>
</svg>
