<?xml version="1.0" encoding="utf-8"?>
<!-- Generator: Adobe Illustrator 15.1.0, SVG Export Plug-In . SVG Version: 6.00 Build 0)  -->
<!DOCTYPE svg PUBLIC "-//W3C//DTD SVG 1.1//EN" "http://www.w3.org/Graphics/SVG/1.1/DTD/svg11.dtd">
<svg version="1.1" id="Layer_1" xmlns="http://www.w3.org/2000/svg" xmlns:xlink="http://www.w3.org/1999/xlink" x="0px" y="0px"
     width="49.625px" height="49.625px" viewBox="0 0 49.625 49.625" enable-background="new 0 0 49.625 49.625" xml:space="preserve">
<path fill="#231F20" d="M21.538,28.109"/>
<path fill="#29506B" d="M20.712,20.562h-8.649c-2.347,0-4.25,1.903-4.25,4.25s1.903,4.25,4.25,4.25l17.002-0.152"/>
<path fill="#29506B" d="M29.062,28.91l8.5,0.152c2.347,0,4.25-1.903,4.25-4.25s-1.903-4.25-4.25-4.25H20.712"/>
</svg>
